…
```
## Joining, by = "word"
```

```r
sentiment_nrc
```

```
## # A tibble: 33 x 13
## # Groups:   scenario [33]
##    scenario index anger anticipation disgust  fear   joy negative positive
##       <int> <int> <dbl>        <dbl>   <dbl> <dbl> <dbl>    <dbl>    <dbl>
##  1        1     1     2            0       1     2     0        2        0
##  2        2     2     2            1       0     2     1        2        2
##  3        3     3     2            0       1     2     0        2        1
##  4        4     4     2            3       0     1     2        1        3
##  5        5     5     1            2       1     1     2        5        3
##  6        6     6     2            1       1     1     1        2        2
##  7        7     7     3            1       1     3     1        3        1
##  8        8     8     2            1       0     1     0        3        1
##  9        9     9     1            1       0     0     1        0        1
## 10       10    10     2            0       1     2     0        2        1
## # … with 23 more rows, and 4 more variables: sadness <dbl>, surprise <dbl>,
## #   trust <dbl>, sentiment <dbl>
```
…
```
## Joining, by = "word"
```

```r
sentiment_afinn
```

```
## # A tibble: 32 x 2
##    scenario sentiment_score
##       <int>           <int>
##  1        1              -2
##  2        2              -2
##  3        3              -2
##  4        5              -2
##  5        6              -2
##  6        7              -5
##  7        8              -9
##  8        9              -1
##  9       10              -4
## 10       11              -8
## # … with 22 more rows
```
…
```
## Joining, by = "word"
```

```r
afinn_word_counts
```

```
## # A tibble: 25 x 3
##    word      sentiment     n
##    <chr>     <chr>     <int>
##  1 accused   negative     31
##  2 killing   negative      3
##  3 murder    negative      3
##  4 died      negative      2
##  5 gun       negative      2
##  6 stopped   negative      2
##  7 united    positive      2
##  8 abandoned negative      1
##  9 alarm     negative      1
## 10 arrested  negative      1
## # … with 15 more rows
```
…
```
## Joining, by = "word"
```

```r
bing_word_counts
```

```
## # A tibble: 30 x 3
##    word        sentiment     n
##    <chr>       <chr>     <int>
##  1 killing     negative      3
##  2 murder      negative      3
##  3 stealing    negative      3
##  4 died        negative      2
##  5 knife       negative      2
##  6 alarm       negative      1
##  7 altercation negative      1
##  8 breaking    negative      1
##  9 burned      negative      1
## 10 condemned   negative      1
## # … with 20 more rows
```
…
```
## Joining, by = "word"
```

```r
nrc_word_counts
```

```
## # A tibble: 70 x 3
##    word         sentiment     n
##    <chr>        <chr>     <int>
##  1 accused      negative     31
##  2 shooting     negative      4
##  3 killing      negative      3
##  4 manslaughter negative      3
##  5 murder       negative      3
##  6 stealing     negative      3
##  7 store        positive      3
##  8 boy          negative      2
##  9 butler       positive      2
## 10 cash         positive      2
## # … with 60 more rows
```
…
